Psychology R Bootcamp - 3: Exploring data
…
Handling data

If you have not already done so, install the tidyverse package now. Then, load it via:

library(tidyverse)

Look at the data:

gapminder

# A tibble: 1,704 × 6
   country     continent  year lifeExp      pop gdpPercap
   <fct>       <fct>     <int>   <dbl>    <int>     <dbl>
 1 Afghanistan Asia       1952    28.8  8425333      779.
 2 Afghanistan Asia       1957    30.3  9240934      821.
 3 Afghanistan Asia       1962    32.0 10267083      853.
 4 Afghanistan Asia       1967    34.0 11537966      836.
 5 Afghanistan Asia       1972    36.1 13079460      740.
 6 Afghanistan Asia       1977    38.4 14880372      786.
 7 Afghanistan Asia       1982    39.9 12881816      978.
 8 Afghanistan Asia       1987    40.8 13867957      852.
 9 Afghanistan Asia       1992    41.7 16317921      649.
10 Afghanistan Asia       1997    41.8 22227415      635.
# ℹ 1,694 more rows
…
What if we wanted to compare these curves across different continents?

gapminder_cont <- gapminder %>%
    group_by(continent, year) %>%
    summarise(mean_life_exp = mean(lifeExp))

`summarise()` has grouped output by 'continent'. You can override using the
`.groups` argument.

gapminder_cont

# A tibble: 60 × 3
# Groups:   continent [5]
   continent  year mean_life_exp
   <fct>     <int>         <dbl>
 1 Africa     1952          39.1
 2 Africa     1957          41.3
 3 Africa     1962          43.3
 4 Africa     1967          45.3
 5 Africa     1972          47.5
 6 Africa     1977          49.6
 7 Africa     1982          51.6
 8 Africa     1987          53.3
 9 Africa     1992          53.6
10 Africa     1997          53.6
# ℹ 50 more rows
…
Group the Gapminder data by continent and country, and compute for each the average (over the different years) life expectancy and average GDP per capita.

Create a plot where each country is shown as a point, the x-axis has the average GDP per capita, the y-axis the average life expectancy, and the points are coloured by continent.

gapminder_le_gdp <- gapminder %>%
    group_by(continent, country) %>%
    summarise(mean_le = mean(lifeExp),
              mean_gdp = mean(gdpPercap))

`summarise()` has grouped output by 'continent'. You can override using the
`.groups` argument.

gapminder_le_gdp

# A tibble: 142 × 4
# Groups:   continent [5]
   continent country                  mean_le mean_gdp
   <fct>     <fct>                      <dbl>    <dbl>
 1 Africa    Algeria                     59.0    4426.
 2 Africa    Angola                      37.9    3607.
 3 Africa    Benin                       48.8    1155.
 4 Africa    Botswana                    54.6    5032.
 5 Africa    Burkina Faso                44.7     844.
 6 Africa    Burundi                     44.8     472.
 7 Africa    Cameroon                    48.1    1775.
 8 Africa    Central African Republic    43.9     959.
 9 Africa    Chad                        46.8    1165.
10 Africa    Comoros                     52.4    1314.
# ℹ 132 more rows
…
Exercise

Answer

Create a new column called pop_m, storing the population in millions.

Store the result in a new tibble called gapminder_new.

gapminder_new <- gapminder %>%
    mutate(pop_m = pop / 1000000)

gapminder_new

# A tibble: 1,704 × 7
   country     continent  year lifeExp      pop gdpPercap pop_m
   <fct>       <fct>     <int>   <dbl>    <int>     <dbl> <dbl>
 1 Afghanistan Asia       1952    28.8  8425333      779.  8.43
 2 Afghanistan Asia       1957    30.3  9240934      821.  9.24
 3 Afghanistan Asia       1962    32.0 10267083      853. 10.3 
 4 Afghanistan Asia       1967    34.0 11537966      836. 11.5 
 5 Afghanistan Asia       1972    36.1 13079460      740. 13.1 
 6 Afghanistan Asia       1977    38.4 14880372      786. 14.9 
 7 Afghanistan Asia       1982    39.9 12881816      978. 12.9 
 8 Afghanistan Asia       1987    40.8 13867957      852. 13.9 
 9 Afghanistan Asia       1992    41.7 16317921      649. 16.3 
10 Afghanistan Asia       1997    41.8 22227415      635. 22.2 
# ℹ 1,694 more rows
…
