Psychology R Bootcamp - 4: Insights from data
…
Recall the original sample statistics which we previously computed:

btstats

# A tibble: 1 × 5
    Min   Med     M    SD   Max
  <dbl> <dbl> <dbl> <dbl> <dbl>
1  35.8  36.8  36.8 0.425  38.2

If we were to take another sample, the sample mean would be different. Let’s try resampling (with replacement) 50 people:

btdata %>%
    sample_n(50, replace = TRUE)

# A tibble: 50 × 2
   BodyTemp Pulse
      <dbl> <dbl>
 1     37.4    77
 2     37.1    64
 3     36.9    70
 4     36.9    82
 5     36.9    83
 6     36.5    77
 7     36.8    73
 8     37.2    81
 9     36.4    74
10     37.2    75
# ℹ 40 more rows
…
